  304 nodes
    1    0.40000    0.10000
    2    0.39375    0.10000
    3    0.38750    0.10000
    4    0.38125    0.10000
    5    0.37500    0.10000
    6    0.36875    0.10000
    7    0.36250    0.10000
    8    0.35625    0.10000
    9    0.35000    0.10000
   10    0.34375    0.10000
   11    0.33750    0.10000
   12    0.33125    0.10000
   13    0.32500    0.10000
   14    0.31875    0.10000
   15    0.31250    0.10000
   16    0.30625    0.10000
   17    0.30000    0.10000
   18    0.29375    0.10000
   19    0.28750    0.10000
   20    0.28125    0.10000
   21    0.27500    0.10000
   22    0.26875    0.10000
   23    0.26250    0.10000
   24    0.25625    0.10000
   25    0.25000    0.10000
   26    0.24375    0.10000
   27    0.23750    0.10000
   28    0.23125    0.10000
   29    0.22500    0.10000
   30    0.21875    0.10000
   31    0.21250    0.10000
   32    0.20625    0.10000
   33    0.20000    0.10000
   34    0.19375    0.10000
   35    0.18750    0.10000
   36    0.18125    0.10000
   37    0.17500    0.10000
   38    0.16875    0.10000
   39    0.16250    0.10000
   40    0.15625    0.10000
   41    0.15000    0.10000
   42    0.14375    0.10000
   43    0.13750    0.10000
   44    0.13125    0.10000
   45    0.12500    0.10000
   46    0.11875    0.10000
   47    0.11250    0.10000
   48    0.10625    0.10000
   49    0.10000    0.10000
   50    0.09375    0.10000
   51    0.08750    0.10000
   52    0.08125    0.10000
   53    0.07500    0.10000
   54    0.06875    0.10000
   55    0.06250    0.10000
   56    0.05625    0.10000
   57    0.05000    0.10000
   58    0.04375    0.10000
   59    0.03750    0.10000
   60    0.03125    0.10000
   61    0.02500    0.10000
   62    0.01875    0.10000
   63    0.01250    0.10000
   64    0.00625    0.10000
   65    0.00000    0.10000
   66   -0.00625    0.10000
   67   -0.01250    0.10000
   68   -0.01875    0.10000
   69   -0.02500    0.10000
   70   -0.03125    0.10000
   71   -0.03750    0.10000
   72   -0.04375    0.10000
   73   -0.05000    0.10000
   74   -0.05625    0.10000
   75   -0.06250    0.10000
   76   -0.06875    0.10000
   77   -0.07500    0.10000
   78   -0.08125    0.10000
   79   -0.08750    0.10000
   80   -0.09375    0.10000
   81   -0.10000    0.10000
   82   -0.10625    0.10000
   83   -0.11250    0.10000
   84   -0.11875    0.10000
   85   -0.12500    0.10000
   86   -0.13125    0.10000
   87   -0.13750    0.10000
   88   -0.14375    0.10000
   89   -0.15000    0.10000
   90   -0.15625    0.10000
   91   -0.16250    0.10000
   92   -0.16875    0.10000
   93   -0.17500    0.10000
   94   -0.18125    0.10000
   95   -0.18750    0.10000
   96   -0.19375    0.10000
   97   -0.20000    0.10000
   98   -0.20625    0.10000
   99   -0.21250    0.10000
  100   -0.21875    0.10000
  101   -0.22500    0.10000
  102   -0.23125    0.10000
  103   -0.23750    0.10000
  104   -0.24375    0.10000
  105   -0.25000    0.10000
  106   -0.25625    0.10000
  107   -0.26250    0.10000
  108   -0.26875    0.10000
  109   -0.27500    0.10000
  110   -0.28125    0.10000
  111   -0.28750    0.10000
  112   -0.29375    0.10000
  113   -0.30000    0.10000
  114   -0.30625    0.10000
  115   -0.31250    0.10000
  116   -0.31875    0.10000
  117   -0.32500    0.10000
  118   -0.33125    0.10000
  119   -0.33750    0.10000
  120   -0.34375    0.10000
  121   -0.35000    0.10000
  122   -0.35625    0.10000
  123   -0.36250    0.10000
  124   -0.36875    0.10000
  125   -0.37500    0.10000
  126   -0.38125    0.10000
  127   -0.38750    0.10000
  128   -0.39375    0.10000
  129   -0.41253    0.09921
  130   -0.42487    0.09686
  131   -0.43681    0.09298
  132   -0.44818    0.08763
  133   -0.45878    0.08090
  134   -0.46845    0.07290
  135   -0.47705    0.06374
  136   -0.48443    0.05358
  137   -0.49048    0.04258
  138   -0.49511    0.03090
  139   -0.49823    0.01874
  140   -0.49980    0.00628
  141   -0.49980   -0.00628
  142   -0.49823   -0.01874
  143   -0.49511   -0.03090
  144   -0.49048   -0.04258
  145   -0.48443   -0.05358
  146   -0.47705   -0.06374
  147   -0.46845   -0.07290
  148   -0.45878   -0.08090
  149   -0.44818   -0.08763
  150   -0.43681   -0.09298
  151   -0.42487   -0.09686
  152   -0.41253   -0.09921
  153   -0.40000   -0.10000
  154   -0.39375   -0.10000
  155   -0.38750   -0.10000
  156   -0.38125   -0.10000
  157   -0.37500   -0.10000
  158   -0.36875   -0.10000
  159   -0.36250   -0.10000
  160   -0.35625   -0.10000
  161   -0.35000   -0.10000
  162   -0.34375   -0.10000
  163   -0.33750   -0.10000
  164   -0.33125   -0.10000
  165   -0.32500   -0.10000
  166   -0.31875   -0.10000
  167   -0.31250   -0.10000
  168   -0.30625   -0.10000
  169   -0.30000   -0.10000
  170   -0.29375   -0.10000
  171   -0.28750   -0.10000
  172   -0.28125   -0.10000
  173   -0.27500   -0.10000
  174   -0.26875   -0.10000
  175   -0.26250   -0.10000
  176   -0.25625   -0.10000
  177   -0.25000   -0.10000
  178   -0.24375   -0.10000
  179   -0.23750   -0.10000
  180   -0.23125   -0.10000
  181   -0.22500   -0.10000
  182   -0.21875   -0.10000
  183   -0.21250   -0.10000
  184   -0.20625   -0.10000
  185   -0.20000   -0.10000
  186   -0.19375   -0.10000
  187   -0.18750   -0.10000
  188   -0.18125   -0.10000
  189   -0.17500   -0.10000
  190   -0.16875   -0.10000
  191   -0.16250   -0.10000
  192   -0.15625   -0.10000
  193   -0.15000   -0.10000
  194   -0.14375   -0.10000
  195   -0.13750   -0.10000
  196   -0.13125   -0.10000
  197   -0.12500   -0.10000
  198   -0.11875   -0.10000
  199   -0.11250   -0.10000
  200   -0.10625   -0.10000
  201   -0.10000   -0.10000
  202   -0.09375   -0.10000
  203   -0.08750   -0.10000
  204   -0.08125   -0.10000
  205   -0.07500   -0.10000
  206   -0.06875   -0.10000
  207   -0.06250   -0.10000
  208   -0.05625   -0.10000
  209   -0.05000   -0.10000
  210   -0.04375   -0.10000
  211   -0.03750   -0.10000
  212   -0.03125   -0.10000
  213   -0.02500   -0.10000
  214   -0.01875   -0.10000
  215   -0.01250   -0.10000
  216   -0.00625   -0.10000
  217    0.00000   -0.10000
  218    0.00625   -0.10000
  219    0.01250   -0.10000
  220    0.01875   -0.10000
  221    0.02500   -0.10000
  222    0.03125   -0.10000
  223    0.03750   -0.10000
  224    0.04375   -0.10000
  225    0.05000   -0.10000
  226    0.05625   -0.10000
  227    0.06250   -0.10000
  228    0.06875   -0.10000
  229    0.07500   -0.10000
  230    0.08125   -0.10000
  231    0.08750   -0.10000
  232    0.09375   -0.10000
  233    0.10000   -0.10000
  234    0.10625   -0.10000
  235    0.11250   -0.10000
  236    0.11875   -0.10000
  237    0.12500   -0.10000
  238    0.13125   -0.10000
  239    0.13750   -0.10000
  240    0.14375   -0.10000
  241    0.15000   -0.10000
  242    0.15625   -0.10000
  243    0.16250   -0.10000
  244    0.16875   -0.10000
  245    0.17500   -0.10000
  246    0.18125   -0.10000
  247    0.18750   -0.10000
  248    0.19375   -0.10000
  249    0.20000   -0.10000
  250    0.20625   -0.10000
  251    0.21250   -0.10000
  252    0.21875   -0.10000
  253    0.22500   -0.10000
  254    0.23125   -0.10000
  255    0.23750   -0.10000
  256    0.24375   -0.10000
  257    0.25000   -0.10000
  258    0.25625   -0.10000
  259    0.26250   -0.10000
  260    0.26875   -0.10000
  261    0.27500   -0.10000
  262    0.28125   -0.10000
  263    0.28750   -0.10000
  264    0.29375   -0.10000
  265    0.30000   -0.10000
  266    0.30625   -0.10000
  267    0.31250   -0.10000
  268    0.31875   -0.10000
  269    0.32500   -0.10000
  270    0.33125   -0.10000
  271    0.33750   -0.10000
  272    0.34375   -0.10000
  273    0.35000   -0.10000
  274    0.35625   -0.10000
  275    0.36250   -0.10000
  276    0.36875   -0.10000
  277    0.37500   -0.10000
  278    0.38125   -0.10000
  279    0.38750   -0.10000
  280    0.39375   -0.10000
  281    0.41253   -0.09921
  282    0.42487   -0.09686
  283    0.43681   -0.09298
  284    0.44818   -0.08763
  285    0.45878   -0.08090
  286    0.46845   -0.07290
  287    0.47705   -0.06374
  288    0.48443   -0.05358
  289    0.49048   -0.04258
  290    0.49511   -0.03090
  291    0.49823   -0.01874
  292    0.49980   -0.00628
  293    0.49980    0.00628
  294    0.49823    0.01874
  295    0.49511    0.03090
  296    0.49048    0.04258
  297    0.48443    0.05358
  298    0.47705    0.06374
  299    0.46845    0.07290
  300    0.45878    0.08090
  301    0.44818    0.08763
  302    0.43681    0.09298
  303    0.42487    0.09686
  304    0.41253    0.09921
  304 elements
    1     1     2
    2     2     3
    3     3     4
    4     4     5
    5     5     6
    6     6     7
    7     7     8
    8     8     9
    9     9    10
   10    10    11
   11    11    12
   12    12    13
   13    13    14
   14    14    15
   15    15    16
   16    16    17
   17    17    18
   18    18    19
   19    19    20
   20    20    21
   21    21    22
   22    22    23
   23    23    24
   24    24    25
   25    25    26
   26    26    27
   27    27    28
   28    28    29
   29    29    30
   30    30    31
   31    31    32
   32    32    33
   33    33    34
   34    34    35
   35    35    36
   36    36    37
   37    37    38
   38    38    39
   39    39    40
   40    40    41
   41    41    42
   42    42    43
   43    43    44
   44    44    45
   45    45    46
   46    46    47
   47    47    48
   48    48    49
   49    49    50
   50    50    51
   51    51    52
   52    52    53
   53    53    54
   54    54    55
   55    55    56
   56    56    57
   57    57    58
   58    58    59
   59    59    60
   60    60    61
   61    61    62
   62    62    63
   63    63    64
   64    64    65
   65    65    66
   66    66    67
   67    67    68
   68    68    69
   69    69    70
   70    70    71
   71    71    72
   72    72    73
   73    73    74
   74    74    75
   75    75    76
   76    76    77
   77    77    78
   78    78    79
   79    79    80
   80    80    81
   81    81    82
   82    82    83
   83    83    84
   84    84    85
   85    85    86
   86    86    87
   87    87    88
   88    88    89
   89    89    90
   90    90    91
   91    91    92
   92    92    93
   93    93    94
   94    94    95
   95    95    96
   96    96    97
   97    97    98
   98    98    99
   99    99   100
  100   100   101
  101   101   102
  102   102   103
  103   103   104
  104   104   105
  105   105   106
  106   106   107
  107   107   108
  108   108   109
  109   109   110
  110   110   111
  111   111   112
  112   112   113
  113   113   114
  114   114   115
  115   115   116
  116   116   117
  117   117   118
  118   118   119
  119   119   120
  120   120   121
  121   121   122
  122   122   123
  123   123   124
  124   124   125
  125   125   126
  126   126   127
  127   127   128
  128   128   129
  129   129   130
  130   130   131
  131   131   132
  132   132   133
  133   133   134
  134   134   135
  135   135   136
  136   136   137
  137   137   138
  138   138   139
  139   139   140
  140   140   141
  141   141   142
  142   142   143
  143   143   144
  144   144   145
  145   145   146
  146   146   147
  147   147   148
  148   148   149
  149   149   150
  150   150   151
  151   151   152
  152   152   153
  153   153   154
  154   154   155
  155   155   156
  156   156   157
  157   157   158
  158   158   159
  159   159   160
  160   160   161
  161   161   162
  162   162   163
  163   163   164
  164   164   165
  165   165   166
  166   166   167
  167   167   168
  168   168   169
  169   169   170
  170   170   171
  171   171   172
  172   172   173
  173   173   174
  174   174   175
  175   175   176
  176   176   177
  177   177   178
  178   178   179
  179   179   180
  180   180   181
  181   181   182
  182   182   183
  183   183   184
  184   184   185
  185   185   186
  186   186   187
  187   187   188
  188   188   189
  189   189   190
  190   190   191
  191   191   192
  192   192   193
  193   193   194
  194   194   195
  195   195   196
  196   196   197
  197   197   198
  198   198   199
  199   199   200
  200   200   201
  201   201   202
  202   202   203
  203   203   204
  204   204   205
  205   205   206
  206   206   207
  207   207   208
  208   208   209
  209   209   210
  210   210   211
  211   211   212
  212   212   213
  213   213   214
  214   214   215
  215   215   216
  216   216   217
  217   217   218
  218   218   219
  219   219   220
  220   220   221
  221   221   222
  222   222   223
  223   223   224
  224   224   225
  225   225   226
  226   226   227
  227   227   228
  228   228   229
  229   229   230
  230   230   231
  231   231   232
  232   232   233
  233   233   234
  234   234   235
  235   235   236
  236   236   237
  237   237   238
  238   238   239
  239   239   240
  240   240   241
  241   241   242
  242   242   243
  243   243   244
  244   244   245
  245   245   246
  246   246   247
  247   247   248
  248   248   249
  249   249   250
  250   250   251
  251   251   252
  252   252   253
  253   253   254
  254   254   255
  255   255   256
  256   256   257
  257   257   258
  258   258   259
  259   259   260
  260   260   261
  261   261   262
  262   262   263
  263   263   264
  264   264   265
  265   265   266
  266   266   267
  267   267   268
  268   268   269
  269   269   270
  270   270   271
  271   271   272
  272   272   273
  273   273   274
  274   274   275
  275   275   276
  276   276   277
  277   277   278
  278   278   279
  279   279   280
  280   280   281
  281   281   282
  282   282   283
  283   283   284
  284   284   285
  285   285   286
  286   286   287
  287   287   288
  288   288   289
  289   289   290
  290   290   291
  291   291   292
  292   292   293
  293   293   294
  294   294   295
  295   295   296
  296   296   297
  297   297   298
  298   298   299
  299   299   300
  300   300   301
  301   301   302
  302   302   303
  303   303   304
  304   304     1
